INFO [2019-03-06 08:25:24] [[1]]
INFO [2019-03-06 08:25:24] vd
INFO [2019-03-06 08:25:24] 
INFO [2019-03-06 08:25:24] $filename
INFO [2019-03-06 08:25:24] [1] "../../analysis/sampling/venn_diagram/venn_z_30_norm"
INFO [2019-03-06 08:25:24] 
INFO [2019-03-06 08:25:24] $fill
INFO [2019-03-06 08:25:24] c("blue", "red", "green")
INFO [2019-03-06 08:25:24] 
