<?xml version="1.0" encoding="utf-8" standalone="no"?>
<!DOCTYPE svg PUBLIC "-//W3C//DTD SVG 1.1//EN"
  "http://www.w3.org/Graphics/SVG/1.1/DTD/svg11.dtd">
<!-- Created with matplotlib (https://matplotlib.org/) -->
<svg height="288pt" version="1.1" viewBox="0 0 432 288" width="432pt" xmlns="http://www.w3.org/2000/svg" xmlns:xlink="http://www.w3.org/1999/xlink">
 <defs>
  <style type="text/css">
*{stroke-linecap:butt;stroke-linejoin:round;}
  </style>
 </defs>
 <g id="figure_1">
  <g id="patch_1">
   <path d="M 0 288 
L 432 288 
L 432 0 
L 0 0 
z
" style="fill:#ffffff;"/>
  </g>
  <g id="axes_1">
   <g id="patch_2">
    <path clip-path="url(#p7507bb3a4b)" d="M 212.545814 63.358638 
C 202.311474 58.881768 191.183474 56.81748 180.024365 57.325779 
C 168.865256 57.834078 157.971006 60.901483 148.186046 66.290234 
C 138.401086 71.678985 129.984938 79.246159 123.589953 88.405212 
C 117.194968 97.564264 112.990756 108.072274 111.303193 119.114747 
C 109.61563 130.15722 110.489475 141.441283 113.856994 152.092287 
C 117.224513 162.743291 122.996392 172.478747 130.725241 180.544041 
C 138.45409 188.609335 147.934922 194.790556 158.432861 198.608587 
C 168.9308 202.426617 180.167414 203.780194 191.271734 202.5644 
C 188.705867 197.406285 186.917765 191.896588 185.965661 186.214747 
C 185.013557 180.532906 184.907902 174.741281 185.652137 169.028495 
C 175.575303 151.368679 172.743586 130.466647 177.75848 110.762269 
C 182.773375 91.057891 195.252748 74.052633 212.545814 63.358638 
" style="fill:#ff0000;opacity:0.4;"/>
   </g>
   <g id="patch_3">
    <path clip-path="url(#p7507bb3a4b)" d="M 212.545814 63.358638 
C 223.856467 68.306325 233.726505 76.048012 241.226158 85.854422 
C 248.725811 95.660832 253.611953 107.214057 255.424301 119.425767 
C 263.418075 121.089594 270.974479 124.412441 277.603864 129.17899 
C 284.233249 133.945539 289.789261 140.050561 293.911873 147.098455 
C 298.034485 154.146349 300.632685 161.98152 301.538111 170.096257 
C 302.443536 178.210993 301.636199 186.426147 299.168414 194.209384 
C 315.815971 182.432636 327.236627 164.620412 330.991157 144.577048 
C 334.745687 124.533683 330.546306 103.795508 319.289917 86.791783 
C 308.033528 69.788058 290.582938 57.822124 270.665243 53.449665 
C 250.747549 49.077205 229.889448 52.633372 212.545814 63.358638 
" style="fill:#008000;opacity:0.4;"/>
   </g>
   <g id="patch_4">
    <path clip-path="url(#p7507bb3a4b)" d="M 212.545814 63.358638 
C 195.252748 74.052633 182.773375 91.057891 177.75848 110.762269 
C 172.743586 130.466647 175.575303 151.368679 185.652137 169.028495 
C 186.690318 161.059355 189.363276 153.389841 193.503119 146.501684 
C 197.642961 139.613526 203.16116 133.654027 209.71111 128.997508 
C 216.26106 124.340989 223.702692 121.08703 231.56859 119.440014 
C 239.434488 117.792999 247.556442 117.788148 255.424301 119.425767 
C 253.611953 107.214057 248.725811 95.660832 241.226158 85.854422 
C 233.726505 76.048012 223.856467 68.306325 212.545814 63.358638 
" style="fill:#b25900;opacity:0.4;"/>
   </g>
   <g id="patch_5">
    <path clip-path="url(#p7507bb3a4b)" d="M 191.271734 202.5644 
C 196.44969 212.973548 204.62145 221.602034 214.733899 227.337883 
C 224.846348 233.073733 236.445584 235.65949 248.036787 234.761921 
C 259.627989 233.864352 270.69088 229.523746 279.799759 222.299487 
C 288.908638 215.075227 295.654647 205.291579 299.168414 194.209384 
C 286.588522 203.108601 271.662438 208.109754 256.260401 208.5862 
C 240.858364 209.062646 225.651703 204.993618 212.545814 196.888964 
C 209.169189 198.366021 205.685371 199.584796 202.124359 200.534792 
C 198.563348 201.484788 194.935393 202.163271 191.271734 202.5644 
" style="fill:#0000ff;opacity:0.4;"/>
   </g>
   <g id="patch_6">
    <path clip-path="url(#p7507bb3a4b)" d="M 191.271734 202.5644 
C 194.935393 202.163271 198.563348 201.484788 202.124359 200.534792 
C 205.685371 199.584796 209.169189 198.366021 212.545814 196.888964 
C 206.992339 193.454707 201.888987 189.340928 197.354119 184.643037 
C 192.819251 179.945147 188.888199 174.699747 185.652137 169.028495 
C 184.907902 174.741281 185.013557 180.532906 185.965661 186.214747 
C 186.917765 191.896588 188.705867 197.406285 191.271734 202.5644 
" style="fill:#b200b2;opacity:0.4;"/>
   </g>
   <g id="patch_7">
    <path clip-path="url(#p7507bb3a4b)" d="M 255.424301 119.425767 
C 257.772977 135.251283 254.845972 151.418243 247.097879 165.415753 
C 239.349785 179.413264 227.203623 190.47711 212.545814 196.888964 
C 225.651703 204.993618 240.858364 209.062646 256.260401 208.5862 
C 271.662438 208.109754 286.588522 203.108601 299.168414 194.209384 
C 301.636199 186.426147 302.443536 178.210993 301.538111 170.096257 
C 300.632685 161.98152 298.034485 154.146349 293.911873 147.098455 
C 289.789261 140.050561 284.233249 133.945539 277.603864 129.17899 
C 270.974479 124.412441 263.418075 121.089594 255.424301 119.425767 
" style="fill:#0059b2;opacity:0.4;"/>
   </g>
   <g id="patch_8">
    <path clip-path="url(#p7507bb3a4b)" d="M 185.652137 169.028495 
C 188.888199 174.699747 192.819251 179.945147 197.354119 184.643037 
C 201.888987 189.340928 206.992339 193.454707 212.545814 196.888964 
C 227.203623 190.47711 239.349785 179.413264 247.097879 165.415753 
C 254.845972 151.418243 257.772977 135.251283 255.424301 119.425767 
C 247.556442 117.788148 239.434488 117.792999 231.56859 119.440014 
C 223.702692 121.08703 216.26106 124.340989 209.71111 128.997508 
C 203.16116 133.654027 197.642961 139.613526 193.503119 146.501684 
C 189.363276 153.389841 186.690318 161.059355 185.652137 169.028495 
" style="fill:#663366;opacity:0.4;"/>
   </g>
   <g id="text_1">
    <!-- 45 -->
    <defs>
     <path d="M 37.796875 64.3125 
L 12.890625 25.390625 
L 37.796875 25.390625 
z
M 35.203125 72.90625 
L 47.609375 72.90625 
L 47.609375 25.390625 
L 58.015625 25.390625 
L 58.015625 17.1875 
L 47.609375 17.1875 
L 47.609375 0 
L 37.796875 0 
L 37.796875 17.1875 
L 4.890625 17.1875 
L 4.890625 26.703125 
z
" id="DejaVuSans-52"/>
     <path d="M 10.796875 72.90625 
L 49.515625 72.90625 
L 49.515625 64.59375 
L 19.828125 64.59375 
L 19.828125 46.734375 
Q 21.96875 47.46875 24.109375 47.828125 
Q 26.265625 48.1875 28.421875 48.1875 
Q 40.625 48.1875 47.75 41.5 
Q 54.890625 34.8125 54.890625 23.390625 
Q 54.890625 11.625 47.5625 5.09375 
Q 40.234375 -1.421875 26.90625 -1.421875 
Q 22.3125 -1.421875 17.546875 -0.640625 
Q 12.796875 0.140625 7.71875 1.703125 
L 7.71875 11.625 
Q 12.109375 9.234375 16.796875 8.0625 
Q 21.484375 6.890625 26.703125 6.890625 
Q 35.15625 6.890625 40.078125 11.328125 
Q 45.015625 15.765625 45.015625 23.390625 
Q 45.015625 31 40.078125 35.4375 
Q 35.15625 39.890625 26.703125 39.890625 
Q 22.75 39.890625 18.8125 39.015625 
Q 14.890625 38.140625 10.796875 36.28125 
z
" id="DejaVuSans-53"/>
    </defs>
    <g transform="translate(130.188838 126.510121)scale(0.1 -0.1)">
     <use xlink:href="#DejaVuSans-52"/>
     <use x="63.623047" xlink:href="#DejaVuSans-53"/>
    </g>
   </g>
   <g id="text_2">
    <!-- 37 -->
    <defs>
     <path d="M 40.578125 39.3125 
Q 47.65625 37.796875 51.625 33 
Q 55.609375 28.21875 55.609375 21.1875 
Q 55.609375 10.40625 48.1875 4.484375 
Q 40.765625 -1.421875 27.09375 -1.421875 
Q 22.515625 -1.421875 17.65625 -0.515625 
Q 12.796875 0.390625 7.625 2.203125 
L 7.625 11.71875 
Q 11.71875 9.328125 16.59375 8.109375 
Q 21.484375 6.890625 26.8125 6.890625 
Q 36.078125 6.890625 40.9375 10.546875 
Q 45.796875 14.203125 45.796875 21.1875 
Q 45.796875 27.640625 41.28125 31.265625 
Q 36.765625 34.90625 28.71875 34.90625 
L 20.21875 34.90625 
L 20.21875 43.015625 
L 29.109375 43.015625 
Q 36.375 43.015625 40.234375 45.921875 
Q 44.09375 48.828125 44.09375 54.296875 
Q 44.09375 59.90625 40.109375 62.90625 
Q 36.140625 65.921875 28.71875 65.921875 
Q 24.65625 65.921875 20.015625 65.03125 
Q 15.375 64.15625 9.8125 62.3125 
L 9.8125 71.09375 
Q 15.4375 72.65625 20.34375 73.4375 
Q 25.25 74.21875 29.59375 74.21875 
Q 40.828125 74.21875 47.359375 69.109375 
Q 53.90625 64.015625 53.90625 55.328125 
Q 53.90625 49.265625 50.4375 45.09375 
Q 46.96875 40.921875 40.578125 39.3125 
z
" id="DejaVuSans-51"/>
     <path d="M 8.203125 72.90625 
L 55.078125 72.90625 
L 55.078125 68.703125 
L 28.609375 0 
L 18.3125 0 
L 43.21875 64.59375 
L 8.203125 64.59375 
z
" id="DejaVuSans-55"/>
    </defs>
    <g transform="translate(291.867454 106.888378)scale(0.1 -0.1)">
     <use xlink:href="#DejaVuSans-51"/>
     <use x="63.623047" xlink:href="#DejaVuSans-55"/>
    </g>
   </g>
   <g id="text_3">
    <!-- 35 -->
    <g transform="translate(199.247106 114.675739)scale(0.1 -0.1)">
     <use xlink:href="#DejaVuSans-51"/>
     <use x="63.623047" xlink:href="#DejaVuSans-53"/>
    </g>
   </g>
   <g id="text_4">
    <!-- 5 -->
    <g transform="translate(243.735438 226.861746)scale(0.1 -0.1)">
     <use xlink:href="#DejaVuSans-53"/>
    </g>
   </g>
   <g id="text_5">
    <!-- 12 -->
    <defs>
     <path d="M 12.40625 8.296875 
L 28.515625 8.296875 
L 28.515625 63.921875 
L 10.984375 60.40625 
L 10.984375 69.390625 
L 28.421875 72.90625 
L 38.28125 72.90625 
L 38.28125 8.296875 
L 54.390625 8.296875 
L 54.390625 0 
L 12.40625 0 
z
" id="DejaVuSans-49"/>
     <path d="M 19.1875 8.296875 
L 53.609375 8.296875 
L 53.609375 0 
L 7.328125 0 
L 7.328125 8.296875 
Q 12.9375 14.109375 22.625 23.890625 
Q 32.328125 33.6875 34.8125 36.53125 
Q 39.546875 41.84375 41.421875 45.53125 
Q 43.3125 49.21875 43.3125 52.78125 
Q 43.3125 58.59375 39.234375 62.25 
Q 35.15625 65.921875 28.609375 65.921875 
Q 23.96875 65.921875 18.8125 64.3125 
Q 13.671875 62.703125 7.8125 59.421875 
L 7.8125 69.390625 
Q 13.765625 71.78125 18.9375 73 
Q 24.125 74.21875 28.421875 74.21875 
Q 39.75 74.21875 46.484375 68.546875 
Q 53.21875 62.890625 53.21875 53.421875 
Q 53.21875 48.921875 51.53125 44.890625 
Q 49.859375 40.875 45.40625 35.40625 
Q 44.1875 33.984375 37.640625 27.21875 
Q 31.109375 20.453125 19.1875 8.296875 
z
" id="DejaVuSans-50"/>
    </defs>
    <g transform="translate(187.197028 191.52992)scale(0.1 -0.1)">
     <use xlink:href="#DejaVuSans-49"/>
     <use x="63.623047" xlink:href="#DejaVuSans-50"/>
    </g>
   </g>
   <g id="text_6">
    <!-- 37 -->
    <g transform="translate(262.196239 172.960876)scale(0.1 -0.1)">
     <use xlink:href="#DejaVuSans-51"/>
     <use x="63.623047" xlink:href="#DejaVuSans-55"/>
    </g>
   </g>
   <g id="text_7">
    <!-- 14 -->
    <g transform="translate(215.711317 153.575707)scale(0.1 -0.1)">
     <use xlink:href="#DejaVuSans-49"/>
     <use x="63.623047" xlink:href="#DejaVuSans-52"/>
    </g>
   </g>
   <g id="text_8">
    <!-- 70 vs. 49 -->
    <defs>
     <path d="M 31.78125 66.40625 
Q 24.171875 66.40625 20.328125 58.90625 
Q 16.5 51.421875 16.5 36.375 
Q 16.5 21.390625 20.328125 13.890625 
Q 24.171875 6.390625 31.78125 6.390625 
Q 39.453125 6.390625 43.28125 13.890625 
Q 47.125 21.390625 47.125 36.375 
Q 47.125 51.421875 43.28125 58.90625 
Q 39.453125 66.40625 31.78125 66.40625 
z
M 31.78125 74.21875 
Q 44.046875 74.21875 50.515625 64.515625 
Q 56.984375 54.828125 56.984375 36.375 
Q 56.984375 17.96875 50.515625 8.265625 
Q 44.046875 -1.421875 31.78125 -1.421875 
Q 19.53125 -1.421875 13.0625 8.265625 
Q 6.59375 17.96875 6.59375 36.375 
Q 6.59375 54.828125 13.0625 64.515625 
Q 19.53125 74.21875 31.78125 74.21875 
z
" id="DejaVuSans-48"/>
     <path id="DejaVuSans-32"/>
     <path d="M 2.984375 54.6875 
L 12.5 54.6875 
L 29.59375 8.796875 
L 46.6875 54.6875 
L 56.203125 54.6875 
L 35.6875 0 
L 23.484375 0 
z
" id="DejaVuSans-118"/>
     <path d="M 44.28125 53.078125 
L 44.28125 44.578125 
Q 40.484375 46.53125 36.375 47.5 
Q 32.28125 48.484375 27.875 48.484375 
Q 21.1875 48.484375 17.84375 46.4375 
Q 14.5 44.390625 14.5 40.28125 
Q 14.5 37.15625 16.890625 35.375 
Q 19.28125 33.59375 26.515625 31.984375 
L 29.59375 31.296875 
Q 39.15625 29.25 43.1875 25.515625 
Q 47.21875 21.78125 47.21875 15.09375 
Q 47.21875 7.46875 41.1875 3.015625 
Q 35.15625 -1.421875 24.609375 -1.421875 
Q 20.21875 -1.421875 15.453125 -0.5625 
Q 10.6875 0.296875 5.421875 2 
L 5.421875 11.28125 
Q 10.40625 8.6875 15.234375 7.390625 
Q 20.0625 6.109375 24.8125 6.109375 
Q 31.15625 6.109375 34.5625 8.28125 
Q 37.984375 10.453125 37.984375 14.40625 
Q 37.984375 18.0625 35.515625 20.015625 
Q 33.0625 21.96875 24.703125 23.78125 
L 21.578125 24.515625 
Q 13.234375 26.265625 9.515625 29.90625 
Q 5.8125 33.546875 5.8125 39.890625 
Q 5.8125 47.609375 11.28125 51.796875 
Q 16.75 56 26.8125 56 
Q 31.78125 56 36.171875 55.265625 
Q 40.578125 54.546875 44.28125 53.078125 
z
" id="DejaVuSans-115"/>
     <path d="M 10.6875 12.40625 
L 21 12.40625 
L 21 0 
L 10.6875 0 
z
" id="DejaVuSans-46"/>
     <path d="M 10.984375 1.515625 
L 10.984375 10.5 
Q 14.703125 8.734375 18.5 7.8125 
Q 22.3125 6.890625 25.984375 6.890625 
Q 35.75 6.890625 40.890625 13.453125 
Q 46.046875 20.015625 46.78125 33.40625 
Q 43.953125 29.203125 39.59375 26.953125 
Q 35.25 24.703125 29.984375 24.703125 
Q 19.046875 24.703125 12.671875 31.3125 
Q 6.296875 37.9375 6.296875 49.421875 
Q 6.296875 60.640625 12.9375 67.421875 
Q 19.578125 74.21875 30.609375 74.21875 
Q 43.265625 74.21875 49.921875 64.515625 
Q 56.59375 54.828125 56.59375 36.375 
Q 56.59375 19.140625 48.40625 8.859375 
Q 40.234375 -1.421875 26.421875 -1.421875 
Q 22.703125 -1.421875 18.890625 -0.6875 
Q 15.09375 0.046875 10.984375 1.515625 
z
M 30.609375 32.421875 
Q 37.25 32.421875 41.125 36.953125 
Q 45.015625 41.5 45.015625 49.421875 
Q 45.015625 57.28125 41.125 61.84375 
Q 37.25 66.40625 30.609375 66.40625 
Q 23.96875 66.40625 20.09375 61.84375 
Q 16.21875 57.28125 16.21875 49.421875 
Q 16.21875 41.5 20.09375 36.953125 
Q 23.96875 32.421875 30.609375 32.421875 
z
" id="DejaVuSans-57"/>
    </defs>
    <g transform="translate(91.568573 57.250297)scale(0.12 -0.12)">
     <use xlink:href="#DejaVuSans-55"/>
     <use x="63.623047" xlink:href="#DejaVuSans-48"/>
     <use x="127.246094" xlink:href="#DejaVuSans-32"/>
     <use x="159.033203" xlink:href="#DejaVuSans-118"/>
     <use x="218.212891" xlink:href="#DejaVuSans-115"/>
     <use x="270.3125" xlink:href="#DejaVuSans-46"/>
     <use x="302.099609" xlink:href="#DejaVuSans-32"/>
     <use x="333.886719" xlink:href="#DejaVuSans-52"/>
     <use x="397.509766" xlink:href="#DejaVuSans-57"/>
    </g>
   </g>
   <g id="text_9">
    <!-- 70 vs. 30 -->
    <g transform="translate(293.083214 51.62387)scale(0.12 -0.12)">
     <use xlink:href="#DejaVuSans-55"/>
     <use x="63.623047" xlink:href="#DejaVuSans-48"/>
     <use x="127.246094" xlink:href="#DejaVuSans-32"/>
     <use x="159.033203" xlink:href="#DejaVuSans-118"/>
     <use x="218.212891" xlink:href="#DejaVuSans-115"/>
     <use x="270.3125" xlink:href="#DejaVuSans-46"/>
     <use x="302.099609" xlink:href="#DejaVuSans-32"/>
     <use x="333.886719" xlink:href="#DejaVuSans-51"/>
     <use x="397.509766" xlink:href="#DejaVuSans-48"/>
    </g>
   </g>
   <g id="text_10">
    <!-- 49 vs. 30 -->
    <g transform="translate(215.863069 249.891007)scale(0.12 -0.12)">
     <use xlink:href="#DejaVuSans-52"/>
     <use x="63.623047" xlink:href="#DejaVuSans-57"/>
     <use x="127.246094" xlink:href="#DejaVuSans-32"/>
     <use x="159.033203" xlink:href="#DejaVuSans-118"/>
     <use x="218.212891" xlink:href="#DejaVuSans-115"/>
     <use x="270.3125" xlink:href="#DejaVuSans-46"/>
     <use x="302.099609" xlink:href="#DejaVuSans-32"/>
     <use x="333.886719" xlink:href="#DejaVuSans-51"/>
     <use x="397.509766" xlink:href="#DejaVuSans-48"/>
    </g>
   </g>
  </g>
 </g>
 <defs>
  <clipPath id="p7507bb3a4b">
   <rect height="217.44" width="255.994098" x="93.402951" y="34.56"/>
  </clipPath>
 </defs>
</svg>
