,minimum,maximum
XANt2,-1000.0,1000.0
BGLK,0.0,0.0
APRAUR,0.0,0.0
GLUR,0.3930434143819733,0.39304341438191626
ADAPAT,-0.2535124331860069,-1.1420696511763008e-13
EX_cgly_LPAREN_e_RPAREN_,0.0,-2.2841393023526056e-14
NODOy,0.0,-5.684341886080802e-14
UPP3MT,2.3922177490538125e-05,2.3922177490535523e-05
PUNP1,-814.2092059906636,0.0
ECOAH1,0.0,0.0
ARGSL,0.0,-7.579122514774405e-14
ATPM,4.0,3.9999999999997726
P5CR,0.0,-7.579122514774403e-14
EX_ca2_LPAREN_e_RPAREN_,-0.0005583629320100945,-0.0005583629320100937
12TTACA,0.0,0.0
ANHTPP,0.0,0.0
ALAALAr,5.9000886187425934e-06,5.900088618742567e-06
3MODH,0.0,1000.0
ALATA_D,-0.393037514293355,-0.3930375142933543
ACNMLr,0.0,0.0
RPI,-1.387919242954045,-1.3074334522475597
GND,0.0,1.387967087308815
SULR,0.026382450079949455,0.026382450079951013
G3PD1,0.0,998.4325245294019
ADCS,7.176653247163848e-05,7.176653247155246e-05
THRAr,1.8912334645785265,1.8912334645784243
TACDex,0.0,0.0
EX_so4_LPAREN_e_RPAREN_,-0.026847806160460463,-0.026847806160462718
EX_ura_LPAREN_e_RPAREN_,0.0,-4.829711236572134e-14
MUDPACPO,0.0,0.0
EX_metsox_DASH_R_DASH_L_LPAREN_e_RPAREN_,0.0,0.0
OCBT,0.03173089114027471,1.5329688054982298
10M3OACPO,0.0,0.0
HPYRRx,0.0,1000.0
PNP,0.0,-7.244566854858212e-14
ALAR,-0.10874871703124711,-0.10874871703124707
FF_2,0.0,0.0
EX_malttr_LPAREN_e_RPAREN_,0.0,-4.1397524884904073e-14
12M3TDA,0.0,0.0
ACSERHS_fw,0.0,-1.448913370971641e-13
TMPPP,0.0,0.0
UAGPT3,5.9000886187425934e-06,5.900088618742569e-06
MALT,0.0,0.0
SO4t2,0.026847806160460463,0.026847806160461837
LPLIPAL1G181pp,0.0,0.0
GLUPEP5,0.0,0.0
NDPK6_fw,0.0,-2.897826741943294e-13
4MTHACP,0.0,0.0
GLYPRO_Ltr,0.0,0.0
CYTK1,1.0449700589824267,1.110468380215221
LEUTA,0.1956638300148482,0.19566383001484766
EX_akg_LPAREN_e_RPAREN_,0.0,0.0
MAN6PI,0.0,0.0
PPND,0.0,0.014792702184883834
9MDACP,0.0,0.0
ILASL,0.0,0.0
AGLYPT,0.0010727433852259262,0.0010727433852259216
GLYAT,0.0,0.0
8MT2ACP,0.0,0.0
MTDACP,0.0,0.0
RNDR1,0.0,0.08365617650728252
PMANM,0.0,0.0
MALTTRabc,0.0,0.0
G3PAT140,0.0,0.0
PRMICIi,0.01016295628295338,0.010162956282952888
DHDPS,0.25351243318600725,0.2535124331859801
FACOAL150AI,0.0021454867704518523,0.0021454867704518432
3CRBL,0.0,0.0
EX_man_LPAREN_e_RPAREN_,0.0,0.0
ANS,0.0,-2.897826741943281e-13
OMMBLHXy,0.0,0.0
ITG3PS,0.0,0.0
ADK1_fw,1.819751738671428,1.9657358506107503
FF_5,0.0,0.0
GALTpts,0.0,0.0
MTHFD,-1.3606173620503306,-1.3606173620506605
PRASCSi,0.0,0.5083744204603504
STEARLCS,0.0,0.0
GF6PTAr,0.5475400239965502,0.5475400239962599
FRTT,0.0,0.0
GLYASNabc,0.0,0.0
EX_b12_LPAREN_e_RPAREN_,0.0,0.0
GAL6PI,0.0,0.0
PAPPT2,0.0,0.0
RIBFLVt2,0.0,0.0
PUNP4,0.0,-1.4489133709716435e-13
GNNUC,0.0,0.0
CYSS,0.026382450079949438,1.1865177187272622
PPCK,0.0,407.1046029953311
GGTT,0.0,0.0
EX_glyc3p_LPAREN_e_RPAREN_,0.0,-1.448913370971641e-13
4M3OPAO,0.0,0.0
HSK,2.700227389550244,2.7002273895499784
ISOHEPD,0.0,0.0
ISHGLT,0.0,0.0
ACLS_c,1.8106998295168295,1.8911856202233646
MEVK1,0.003348032105290116,0.003348032105290087
PPTT,0.0,0.0
ALALEUt,0.0,0.0
AHCYSNS,4.784435498107631e-05,4.784435488448173e-05
EX_orn_LPAREN_e_RPAREN_,0.0,-3.2198074910480914e-14
GLTPD,0.0,0.0
PYNP1,0.0,0.0
EHGLAT,0.0,0.0
ISOHEP1A3PA,0.0,0.0
AGPAT160,0.0,0.0
PUNP5,-814.2092059906637,-5.795653483886567e-14
PRFGS,0.5083744204603571,0.508374420460327
EAR120x,0.0,0.0
S1AGPA,0.0,0.0
ACKr,9.90134685141259,825.611790756361
AICART,0.5185373767433202,0.5185373767430024
2MACPT,0.0,0.0
ISOHEPO,0.0,0.0
MYRGLT,0.0,0.0
ALAt4,-1000.0,1000.0
ASPK_fw,0.0,-9.265477274311703e-12
NOS3_fw,0.0,-4.632738637155852e-12
NODOx,0.0,-2.3163693185779266e-12
EX_xan_LPAREN_e_RPAREN_,0.0,-1.3236396106159584e-12
BETALDHx,0.0,0.0
KARA4,0.0,0.0
NPHS2,0.0,1000.0
DHNCOAT,0.0,1000.0
SHK3Dr,-0.04083644426841088,-0.040836444268410765
VALTA,-0.045394423637897294,-0.04539442363789724
CS,0.0,-9.265477274311703e-12
PTA2,0.0,-9.265477274311703e-12
ASO4t,0.0,0.0
DHFS,7.176653247163843e-05,7.176653247125124e-05
ANTILIPS,0.0,0.0
UCPP,0.0,-9.265477274311703e-12
DCPP,0.0,-9.265477274311703e-12
GMPR,0.0,-9.265477274311689e-12
2A2HBPL,-12.769556059838672,0.7817798198541475
ISTETUGLT,0.0,0.0
GLYOX,0.0,0.0
FDH,0.0,-9.265477274311703e-12
PPM,-814.2092059906781,0.0654266190556636
EX_glyc_LPAREN_e_RPAREN_,0.0,-4.632738637155853e-12
3OAR140,0.0,0.0
GTPHDR,0.0,7.176653247125124e-05
IMPD,0.0719072764037561,0.0719072763944904
HEMEOS,0.0010727433852259257,0.0010727433852257817
6PGALSZ,-2.9369099744752026e-13,0.0
CHORM,0.034666882511185826,0.03466688251041705
ME2,0.0,-9.265477274311703e-12
NMNHYD,0.0,-2.316369318577926e-12
ANPRT,0.006097795224639725,0.0060977952246263215
GLYCt2,0.0,-4.632738637155853e-12
NNAM,0.0,-2.316369318577926e-12
PRAI,0.006097795224639725,0.0060977952246263215
3MBCOT,0.0,0.0
23PDE9pp,0.0,0.0
GLCE,0.0,-9.265477274311706e-12
URIK2,0.0,-9.265477274311703e-12
HSDx,0.0,997.2832860464488
XPPT,0.0,0.0
TKT1,-0.02041822213439497,-0.020418222143471
FGLU,0.0,0.0
NTRIR2y,0.0,-9.265477274311706e-12
G3PAT120,0.0,-1.8530954548623414e-13
IMACTD_fw,0.0,-4.632738637155852e-12
8METNO,0.0,0.0
EX_galt_LPAREN_e_RPAREN_,0.0,-3.08849242477057e-12
GTHRDHpp,0.0,0.0
DGK1_fw,0.0,-4.632738637155852e-12
GLNSP2,0.0,0.0
PPNDH,0.019874180326388078,0.01987418032635295
URCN,-4.707345624410662e-14,0.0
GLXO1,0.0,0.0
GLNS,7.198832616078479,7.198832616072874
DTUPP,0.0,-9.265477274311702e-12
ANTGT,0.0,0.0
ADPT,0.0,-4.63273863715585e-12
DBTS,0.0,-2.573743687308807e-13
FACOALO,0.0,0.0
NDPK4_fw,0.002175523584673292,0.002175523575972696
ACS2,0.0,0.0
HMBS,0.0010966655627164619,0.001096665562602775
RU5PS,0.0,0.0
23PDE2pp,0.0,0.0
UAPGR,0.1909542226588332,0.1909542226588079
UAGDP,0.39199223313879006,0.3919922331364737
LPLIPAL2E181,0.0,0.0
TRPS3r,0.0,0.0060977952246263215
LIPATPT,0.0,0.0
EX_aso4_LPAREN_e_RPAREN_,0.0,0.0
ISPDUGL,0.0,0.0
EX_malthx_LPAREN_e_RPAREN_,0.0,0.0
GRTT,0.0010845435624634088,0.0010845435624632653
EX_hxan_LPAREN_e_RPAREN_,0.0,0.0
CYTK11,-0.06542661906549396,-9.265477274311703e-12
GTPCII,2.39221774905381e-05,2.392217702726424e-05
PPPGO,0.0005363716926129619,0.0005363716925561185
ISO1A3P,0.0,0.0
EX_o2_LPAREN_e_RPAREN_,4.526493956389821,5.277112913558413
14MHDAT,-1.8829382497642647e-13,0.0
3OAR60,0.0,0.0
DPMVD,0.003348032105290108,0.003348032105289665
EX_gln_DASH_L_LPAREN_e_RPAREN_,0.0,0.0
ACONTa_fw,0.0,-4.234834705130209e-12
HMGCOARi,0.0,989.7994155612628
NDPK5_fw,0.0,0.06542661905645941
MNt2,7.412656735422986e-05,7.412656791910236e-05
PSERT,-2.824407374646397e-13,0.0
EX_cytd_LPAREN_e_RPAREN_,0.0,-1.0231815394945443e-12
UDPDPS3,1.1800177237485163e-05,1.1800177237483735e-05
MYRLASNS,0.0,0.0
FF_7,0.0,0.0
FF_8_fw,0.0,-8.4696694102604e-12
EX_ser_DASH_D_LPAREN_e_RPAREN_,0.0,0.0
ISOPLSNS,0.0,0.0
DDPA,0.0408364442684108,0.04083644426760413
ARGDC,0.0,0.0010727433852257939
EAR60x,0.0,0.0
GTPHL,0.0,7.176653247127843e-05
EX_ni2_LPAREN_e_RPAREN_,-3.464961134279762e-05,-3.464961134279734e-05
GLYKr,0.013462929484020463,0.013462929484583715
EX_man6p_LPAREN_e_RPAREN_,0.0,0.0
ALAASPtr,-5.648814749292794e-14,0.0
EX_fe3_LPAREN_e_RPAREN_,-7.531752999057059e-13,-6.775735528208308e-12
DRPAr,-0.08053363506189999,-4.7844359215912236e-05
EX_co2_LPAREN_e_RPAREN_,0.0,0.0
ICITRED,0.0,999.9999999999958
EX_leu_DASH_L_LPAREN_e_RPAREN_,-0.2976314142850695,-0.29763141428505524
UAGPT2,0.0,0.0
11M3ODO,0.0,0.0
URIK3,0.0,-8.469669410260388e-12
NO2t,-5.648814749292796e-13,999.9999999999907
ACPS1,0.0,-9.265477274311703e-12
G6PBDH,0.0,0.0
PUNP7,-814.2092059906687,0.0
DURIK1,0.0,0.08048579070209788
ASPTA,-4.819597063726045,-4.819597063737336
MNLpts,-4.2072581611787343e-29,0.0
EX_chols_LPAREN_e_RPAREN_,0.0,0.0
PYK,-5.650423178496755e-13,0.0
ANDUG,0.0,0.0
EX_pydx_LPAREN_e_RPAREN_,0.0,0.0
L_LACt,-1.8834743928322508e-13,0.0
EX_fru_LPAREN_e_RPAREN_,0.0,-2.3163693185779262e-12
LHISO,0.0,0.010162956282938061
HMPK1,0.0,0.0
3OAR120,0.0,0.0
CTPS1,0.30824294250495987,0.4541553522679193
13MTTDAO,0.0,0.0
ACOAD4,0.0,0.0
METSr,-999.9834655916549,0.016534408345143532
PEPSYN,0.0,0.0
AGPAT181,0.0,0.0
ASO3tex,0.0,0.0
G5SAD,0.0,0.0
EX_fe2_LPAREN_e_RPAREN_,-0.002654610780555691,-0.002654610793434041
15M3OHAO,0.0,0.0
UAG4E_fw,0.09204138245238426,0.09204138244775152
ABUTD,0.0,0.0
ILETA,-0.031166306296575616,-0.03116630629663024
EX_mn2_LPAREN_e_RPAREN_,-7.412656791911064e-05,-7.412656791911133e-05
EX_tre_LPAREN_e_RPAREN_,0.0,-1.8530954548623393e-12
FF_9,0.0,0.0
PFK_3,0.0,5.74854314315112
MBCOA3,0.0,0.0
PGK,-9.83475675375153,-9.754270963054214
PGCDr,0.0,-1.2325951645513242e-32
EX_spmd_LPAREN_e_RPAREN_,0.0,0.0
HPROzr,0.0,0.0
NP1,0.0,0.0
ANTIP,0.0010727433852259238,0.0010727433852257817
EX_pheme_LPAREN_e_RPAREN_,0.0,0.0
MALTabc,1.3109513474773876e-13,0.0
TDACPT,2.7311486405778835e-14,0.0
MTAN,0.0,0.0
FE2abc,0.002654610781954039,0.0026546107736676893
ADSS,0.4466301003395537,0.4466301003379882
EX_g6p_LPAREN_e_RPAREN_,0.0,-6.176984849541127e-13
DAUPP,0.0,0.06542661905566362
ARGN,-0.0010727433851530931,1.5012379143449261
3HAOR,0.0,0.0
ISHDLAS,0.0,0.0
SIAOO,0.0,0.0
TMDPK,2.3922177490581063e-05,2.3922177376724524e-05
EX_gly_LPAREN_e_RPAREN_,0.0,-4.6327386371558564e-12
SHCHF,-2.3922177490530637e-05,-2.39221774905381e-05
ALPHNH,0.0,0.0
PMPTCA,-1.2454783640064778e-30,0.0
MTHFR3,-0.016534408345135844,-0.01653440834516421
DGUPP,0.0,-9.265477274311705e-12
DMPHMT,0.0,0.0
15MHDAT,0.0,0.0
10M3HDAHL,0.0,0.0
G3PAT180,0.0,0.0
IG3PS,0.010162956282953358,0.010162956282938061
ASPCT,0.8425764226865389,0.842576422685028
PPCDC,7.170216786811512e-05,7.170216809532573e-05
HADPCOADH3,0.0,0.0
PSCVT,0.04083644426846759,0.04083644426752834
EX_thm_LPAREN_e_RPAREN_,-4.78443549811117e-05,-4.784435486726579e-05
GLUTRR,0.008773324501731695,0.0087733245008222
APG3PAT140a,0.0,0.0
PPBNGS,0.0043866622508658476,0.0043866622504111
2MPCAC,0.0,0.0
12M3HTHL,0.0,0.0
HSDy,-1000.0,-2.716713953551107
CYTD,6.938893903944559e-18,0.06542661905566362
6M3HHL,0.0,0.0
SUCBZL,0.0,0.0
PROt,-1000.0,1000.0
SMALO,0.0,0.0
PGAMT,-0.5475400239970926,-0.547540023996549
PRAMPC,0.010162956282953358,0.010162956282938061
SALOR,0.0,0.0
FBA,-2.174260771425909e-12,5.74854314315111
UPPDC2,0.0,0.0
UDCPDPpp,5.9000886187425816e-06,5.900088618741801e-06
SQDS,0.0,0.0
METSOX1abc,-1.811883976188258e-13,0.0
ANTLAS,0.0,0.0
MI1PP,0.0,0.0
ACOAD3,0.0,0.0
NO3t3,-1000.0,-8.526512829121202e-12
14M3OP,0.0,0.0
UREA,0.0,-8.64019966684281e-12
GAPDy,0.0,-4.320099833421405e-12
EX_thymd_LPAREN_e_RPAREN_,0.0,-7.854726969857108e-13
TECAex,0.0,0.0
ALATHRtr,0.0,0.0
ALKP,1.481643851848085,630.7237888170919
ANTPGP,0.0,0.0
AB6PGH,0.0,0.0
EX_drib_LPAREN_e_RPAREN_,0.0,-5.009326287108706e-13
DHPPDA,0.0,0.0
ADNCYC,0.0,0.0
HACD5,0.0,0.0
EX_cobalt2_LPAREN_e_RPAREN_,-2.6818584630648928e-06,-2.6818584630648098e-06
GALUr,-999.6107357532899,0.3892642467101278
NDPK3_fw,0.9065668529051719,1.0536129807925954
BTNt,0.0,0.0
URIDK2r,0.0,-2.9398705692074178e-12
DAPDA,-1.0871303857129543e-12,0.2535124331854722
10MTDAO,0.0,0.0
EX_ptrc_LPAREN_e_RPAREN_,0.0,0.0
LPLIPAL1G180pp,0.0,0.0
DHAD3,0.7817798198549196,0.7817798198544297
GLUSy_fw,0.0,-2.939870569207418e-12
GLCNt2r,-7.247535904753059e-13,0.0
LASP2OA,0.0,0.0
GNK,-7.247535904753059e-13,0.0
3OAR160,0.0,0.0
11MTRDOC,0.0,0.0
ACGApts,-2.7178259642823913e-13,0.0
DUCYTP,0.0,-5.8797411384148355e-12
ISTLALNA,0.0,0.0
GCALDD,7.176653247160936e-05,7.176653247139425e-05
EX_arab_DASH_L_LPAREN_e_RPAREN_,0.0,0.0
LPADH5,0.0,1000.0
CHCOAL,0.0,0.0
DHNPA2,7.176653247160936e-05,7.176653247139425e-05
GLYCK,0.0,-5.879741138414829e-12
FF_10,0.0,0.0
HEXTT,0.0,0.0
NTD4pp,0.0,-5.879741138414837e-12
LPADH3,0.0,1000.0
GLUPRT,0.5083744204602978,0.5083744204602451
MTHFC,-1.36061736205128,-1.360617362053339
FRUKr,0.0,-1.3233858453531882e-12
CYSDS,0.0,1.160135268645834
PLIPA2A180b,0.0,0.0
14MTP2EA,0.0,0.0
ANT1A3P,0.0,0.0
GLUTRS,0.008773324501731695,0.008773324501471889
FTHFL,2.3875530814286963,2.3875530814302026
ALAGLUt,-1.811883976188258e-13,0.0
SDPTA,-0.2535124331870938,0.0
APAT_fw,0.0,0.2535124331846833
EX_dhptd_c,4.78443549810762e-05,4.784435409881897e-05
DPR_fw,0.0,-1.3233858453531882e-12
DURIPP,-0.08048579070706513,-1.3235385010190726e-12
BETALDHy,0.0,0.0
CDPMEK,0.0,0.0
ACLDC,0.0,0.0
UGMDDS,5.9000886187425816e-06,5.900088618742359e-06
CYTDK1,0.0,0.065426619062282
RNTR4,0.0,-2.647084440829352e-12
MOHMT,7.170216787066863e-05,7.170216798164583e-05
HETZK,0.0,0.0
ORNCD,0.02371352890211166,0.0237135289012293
ASAD,2.9702263867236427,2.9702263867248946
FACOAL17ante0iso,0.0,0.0
AT_MBD1,-1000.0,15.285403277091746
RNTR1,0.0,0.08365617650448728
FBA3,0.0,5.748543143154909
EX_4hba_LPAREN_e_RPAREN_,0.0,0.0
EX_chol_LPAREN_e_RPAREN_,0.0,0.0
ACGS,8.444830135534705,11.35971575168544
LPLIPAL2E160,0.0,0.0
SHCHD2,2.39221774905381e-05,2.392217749047116e-05
CYTK2,-0.13734119011706455,-0.05685539941697396
ALAGLYtr,1.8971491044794723e-12,0.0
GLYGLNtr,1.4755604145951443e-12,0.0
G1SAT_fw,0.0,-2.939870569207418e-12
RHCCE,4.78443549810762e-05,4.784435302116249e-05
14M3OHO,0.0,0.0
LHIST,0.0,0.01016295628294365
RBFSb,2.39221774905381e-05,2.3922177196551044e-05
7M3ODO,0.0,0.0
ARABR,0.0,0.0
2A4H6ET,0.0,7.176653247139425e-05
EX_fe3dcit_LPAREN_e_RPAREN_,0.0,0.0
RNTR2,0.0,0.0
EX_alagly_LPAREN_e_RPAREN_,0.0,0.0
NDPK1_fw,0.47949320775895066,0.4794932077528564
THRD_L,0.7817798198683263,0.7817798198544297
DTMPK_fw,0.0021755235852381734,0.002175523582298303
SIALO,0.0,0.0
3OAR100,0.0,0.0
6M3OXO,0.0,0.0
PFK,0.0,5.748543143154897
ASP1DC,7.170216815666208e-05,7.170216809533012e-05
EX_cl_LPAREN_e_RPAREN_,-0.0005583629320099874,-0.0005583629320100933
BPNT,0.026382450080238762,0.026382450074297736
HIBD,0.0,0.0
FFSD,0.0,0.0
ECOAH3,0.0,0.0
CTPS2,0.0,-5.879741138414836e-12
DHORD,0.8425764226865393,0.8425764226855778
CYTDK2,0.0,-5.879741138414836e-12
GLCBPP,0.0,-5.879741138414829e-12
GLYCt,-933.6858078449599,0.0
RBFSa,4.78443549810762e-05,4.784435439310209e-05
PFL,0.0,-5.879741138414836e-12
UMPK,0.6726297337405854,0.8185421435063837
NDPK9,0.0,-5.880053888537829e-12
FECRMabc,0.0,0.0
ASNN,0.0,-1.960017962845938e-12
AIRC,0.0,814.2092059908002
TRPS1,0.0,0.00609779522466278
CGLYabc,7.375802473979257e-13,0.0
PALGLCT,0.0,0.0
DHPS2,0.0,1.5948922818042983e-11
MI3PP,0.0,0.0
CYSTL,0.016486563993871033,1.1766218326452316
CLtex,0.0005583629320100933,0.0005583629320102205
NADKd_fw,0.0,1.5948922818044146e-11
CHORS,0.04083644426841081,0.04083644426992974
TRDR,0.23338266102340138,0.31386845173556244
4OT,0.0,0.0
EX_nh4_LPAREN_e_RPAREN_,-9.508754285193325,-6.50627845646744
EX_sbt_DASH_D_LPAREN_e_RPAREN_,0.0,0.0
EX_ctbt_LPAREN_e_RPAREN_,0.0,0.0
PFK_2,2.458600824659764e-12,0.0
IMPC,-0.5185373767427034,-0.5185373767419605
AMAOTr_fw,0.0,7.971466958002038e-12
ACLS_b,-0.07454622942193584,13.476789650309797
AH6PI,0.0,0.0
SERt2r,3.6879012369896356e-12,0.0
IPPMIa_fw,0.0,7.974461409022073e-12
EX_gam_LPAREN_e_RPAREN_,0.0,3.987230704510567e-12
HEMEti,9.050064385250605e-14,0.0
EX_acmana_LPAREN_e_RPAREN_,0.0,1.9936153522553523e-12
KARA3_fw,0.0,7.974461409022073e-12
8M3OAO,0.0,0.0
2S5EPAC,0.0,0.0
EX_btbet_LPAREN_e_RPAREN_,0.0,0.0
3HAD120,0.0,0.0
EAR140x,0.0,0.0
EX_crn_LPAREN_e_RPAREN_,0.0,0.0
ADSL1,0.4466301003394707,0.4466301003413946
ARGSSr,0.0,5.3163076060145015e-12
ALAD_L,0.0,3.987230704511018e-12
IPG3P,0.0,0.0
RBFK,2.39221774905381e-05,2.3922177490719688e-05
DCMPDA,0.0,0.08048579071468091
3HAD100,0.0,0.0
EX_cbl2_LPAREN_e_RPAREN_,0.0,0.0
PPM2,-0.0805336350592531,-4.784434703078433e-05
AGPAT160d,0.0,0.0
MANpts,2.458600824659764e-12,0.0
NDPK2_fw,1.096013120189549,1.2419255299771572
G6PDH2r,1.3074812966243217,1.3879670873235985
MHPGLUT2,2.4586008246597708e-12,0.0
EX_arsbet_LPAREN_e_RPAREN_,0.0,0.0
NTD6pp,0.0,1.5936785555444098e-11
GLNSP3,0.0,0.0
FF_16_fw,0.0,7.96839277772223e-12
LPLIPAL2G180,0.0,0.0
PYDXK,1.4751604947958552e-12,0.0
PUNP6,0.0,0.0
3HACPH,0.0,0.0
PGLer,1.3074812966243217,1.3879670873235985
RAFH,0.0,0.0
LCADi,0.0,0.0
AIRC4,0.0,814.7175804112595
AGPAT140d,0.0,0.0
UDCTPP,0.0,1.594893201657718e-11
2OXOTHP,0.0,0.0
PGI,6.215597376458039,6.296083167206634
GCCa,0.0,3.9872330041442155e-12
FMNAT,2.39221774905381e-05,2.3922177490719688e-05
PPND2,0.0,0.014792702186430345
NDPK7_fw,0.0,0.0010620159673225967
3HOXTPP,0.0,0.0
MALTAT,0.0,0.0
FT,1.1800177237485163e-05,1.1800177237487852e-05
RPE_fw,0.0,1.0632621344384291e-11
PPAKr,7.375802473979236e-12,0.0
EX_aso3_LPAREN_e_RPAREN_,0.0,0.0
4M3OXHA,0.0,0.0
NADS1,0.0002894261653709762,0.0002894261690471467
AKP1,0.0,7.176653247213671e-05
INSH,0.0,814.2092059906498
THRS,2.700227389558908,2.7002273895485125
10MTU2A,0.0,0.0
ACGK,0.056517163427755625,0.05651716342643417
ISTUG,0.0,0.0
STEARGLT,0.0,0.0
METabc,5.67369421075327e-13,0.0
23PDE7pp,0.0,0.0
ALCD19_fw,0.0,-2.3561325823131384e-12
TECA4S,0.003068046081746142,0.003068046081746039
EX_k_LPAREN_e_RPAREN_,-0.02093919995923817,-0.020939199959240377
DHAPT,1.4816438518567474,408.6667326378803
NADK,8.805078421003643e-05,8.805077451088876e-05
HACD6,0.0,0.0
GLYCLTDx,0.0,0.0
AGPAT140,0.0,0.0
ISOTETT,0.0,0.0
ARGORNt7,7.946236261583825e-13,0.0
RIBabc,0.0,407.10460299532537
EX_metsox_DASH_S_DASH_L_LPAREN_e_RPAREN_,0.0,-1.9634438185942838e-13
P5CD,0.0,-7.853775274377137e-13
ANS2,0.006097795231791331,0.006097795224636312
GLUt2r,-1000.0,1000.0
FOLR2,0.0,0.0
CDDTPP_fw,0.0,-2.3561325823131424e-12
PALMGLTT,0.0,0.0
HXPRT,0.0,-4.71226516462628e-13
FACOAL160iso,0.0,0.0
UUPP,0.0,-2.3561325823131424e-12
EX_cit_LPAREN_e_RPAREN_,0.0,0.0
ANHGLM,0.0,0.0
DHAD2,0.0,0.0
BTCCPL,6.339849726492376,6.3398497264921625
5GPAGC,0.0,0.0
FERO_fw,0.0002093995111515495,0.00020939950761803404
UDUPP,0.0,-2.3561325823131424e-12
EX_urea_LPAREN_e_RPAREN_,0.0,1.5012379143588475
EX_malt_LPAREN_e_RPAREN_,0.0,-4.712265164626255e-13
PUTA3,0.0,-1.1780662911565704e-12
6MTHAO,0.0,0.0
GTPDPK,0.0,0.0
PHETA1,-0.019874180326361287,-0.019874180326388078
DSERt2,0.0,0.0
LPADH,0.0,1000.0
ALDD2x,0.0,-2.3561325823131424e-12
FCLT,0.0010727433852259238,0.0010727433851970142
7M3HOACPL,0.0,0.0
STEARGLM,0.0,0.0
G6PDA,0.0,-2.356132582313142e-12
DUUPP,0.0,-2.3561325823131424e-12
2SU6HYCC,0.0,0.0
DHAD1,0.07454622942254563,0.07454622942229754
DMATT,0.0010845435624634088,0.0010845435624633724
11MHDOD,0.0,0.0
METDabc,0.0,0.0
PUNP3,0.0,0.0
ACLS_d,14.505709659946247,14.505709659925401
15MTHACP,0.0,0.0
12MTACPM,0.0,0.0
4NPPP,0.0,0.0
UPPDC1,0.0010727433852259238,0.0010727433851970142
7MTROCAC,0.0,0.0
COBALT2tex,2.6818584630648098e-06,2.6818584630647196e-06
HPPK2,0.0,-2.3561325823131356e-12
ILEt2r,5.888622922611853e-13,0.0
14MPACPT,0.0,0.0
OBTFL,0.0,0.0
PRPPS,1.2870152301132984,1.432927639882219
PROD2,0.0,0.0
ACCO2L_fw,6.339849726492376,6.339849726491197
TRE6PH,0.0,0.0
AT_MBD,-0.7506135135582793,999.2493864864416
ADNUC,0.0,814.2092059903903
PLPS,0.0,0.0
IPPS,0.0,0.0
FBA2,-5.861977570020849e-14,0.0
SHKK,0.04083644426841082,0.04083644426513392
HISTP,0.010162956282953358,0.010162956282896554
GAPD_fw,9.75427096304537,9.834756753716468
FUM,-0.8331707803239679,-0.8331707803423303
MI4PP,0.0,0.0
THFGLUS,0.0,0.0
FRD2,0.12183374047605255,0.12183374045894228
METAT,4.78443549810762e-05,4.784434351200912e-05
NAPRTr,-0.0002894261654043939,-0.0002894261654914354
HBZOPT,0.0,0.0
EX_pb_LPAREN_e_RPAREN_,0.0,0.0
FRUpts,-2.3447910280083403e-14,0.0
3HAD140,-4.6895820560166764e-15,0.0
UAGCVT,0.1909542226588332,0.19095422265873932
EX_acgam_LPAREN_e_RPAREN_,0.0,-4.300900157182956e-12
RIBabc2,-1.3322676295501878e-15,407.1046029951951
GLUDx,0.0,-1.7203600628732003e-11
EAR40x,0.0,0.0
13MTDAT,0.0,0.0
9M3OXPA,0.0,0.0
PRAIS,0.5083744204604113,0.5083744204587192
ISHEGL3P,0.0,0.0
FBP,0.0,-3.440720125746398e-11
GLYALDDr_fw,0.0,-3.4407201257463986e-11
DADNK,4.7844354922456427e-05,4.7844320573874946e-05
FF_17,-6.51330841113428e-15,0.0
IGPS,0.006097795224639719,0.006097795224589967
ISOGL3P,0.0,0.0
G3PAT160,0.0,0.0
GUAPRT,0.0,0.0
8M3ONO,0.0,0.0
PUNP2,-4.784435502015605e-05,-4.7844372184676834e-05
3H3MOPI_fw,0.0,-3.440720125746398e-11
ACGAMT,0.0,0.0
AGPAT161,0.0,0.0
METB1r_fw,0.016486563990183133,0.01648656395577593
DADK_fw,0.0,-1.720360062873199e-11
NDPK8_fw,0.0,-3.440720125746398e-11
EAR80x,0.0,0.0
EX_fecrm_LPAREN_e_RPAREN_,0.0,0.0
CA2abc,0.0005583629320100933,0.0005583629320098189
TALA,-5.728124921026755,0.02041822212273633
LDH_L_fw,0.0,-3.440720125746397e-11
DB4PS,4.78443549810762e-05,4.7844351540356075e-05
DHQS,0.04083644426841082,0.04083644426513392
PRAGS,0.5083744204604116,0.5083744204587209
G3PAT161,0.0,0.0
DCYTD,0.0,0.0
EX_cbl1_LPAREN_e_RPAREN_,0.0,0.0
PTAr,0.0,0.0
IPDDI,0.0010845435624634088,0.0010845435624628758
EX_pi_LPAREN_e_RPAREN_,-11.413993802503796,-10.993296243748672
NTD1,0.0,-1.720360062873188e-11
ACONT,0.0,0.0
LPLIPAL1E181pp,0.0,0.0
FF_18,0.0,0.0
2ACLMM,0.0,0.0
PPNCL2,0.0,7.170216883874786e-05
ACONTb_fw,0.0,-1.7203600628731996e-11
G3PAT141,0.0,0.0
HEX7,0.0,-5.734533542910664e-12
PPNCL3,0.0,7.170216883874786e-05
TMDK1,-1.8036854061602615e-14,0.0
LPADH4,0.0,1000.0
ISOPENM,0.0,0.0
OMPDC,0.8425764226865305,0.8425764226877952
FF_19,0.0,0.0
4MTRPE,0.0,0.0
Cuabc,0.0,407.10460299536305
10M3OUO,0.0,0.0
GLYt2,-5.861977570020848e-14,0.0
DACTPP,0.0,0.06542661907246453
12M3OXOT,0.0,0.0
HACD1,0.0,0.0
EX_na1_LPAREN_e_RPAREN_,-0.02987912150865668,-0.02987912150865668
TKT2,0.02041822213416633,0.02041822214174084
STEARNS,0.0,0.0
PALMLNS,0.0,0.0
6PHBG2,-1.1723955140041714e-13,0.0
EX_h2o_LPAREN_e_RPAREN_,22.69503554873402,25.90786015688461
DHFR,-0.08055755723922028,-0.08055755723920223
XTSNH,0.0,814.2092059907264
AT_MBD2,-0.029080103616593102,999.9709198963835
SHSL1r,0.0,1000.0
NTRIR2x,0.0,-2.421444790917036e-11
UAAGDS,5.9000886187425816e-06,5.90008861874054e-06
IPMD,0.0,0.0
EX_zn2_LPAREN_e_RPAREN_,-3.658054943620403e-05,-3.6580549436204005e-05
UPP3S,0.0010966655627164619,0.0010966655627159105
EX_no3_LPAREN_e_RPAREN_,0.0,-2.432898327242583e-11
ADSL2r,0.5083744204602788,0.5083744204593484
ISO1A3PAT,0.0,0.0
AGPAT120,0.0,-4.797584551852196e-13
UAMAS,5.9000886187425816e-06,5.90008861874056e-06
3HAD60,0.0,0.0
ACLS_a,0.0,13.55133587963769
DHDPRy,-0.2535124331860067,-0.2535124331860067
DPCOAK,7.170216796403839e-05,7.170214767335953e-05
GK1_fw,0.0,0.07190727639339486
RNDR3,0.056855399416973956,0.13840320606471723
TPI,-4.181067672563034,-4.100581881876493
EX_fuc1p_DASH_L_LPAREN_e_RPAREN_,0.0,0.0
HACD2,0.0,0.0
PMPK,0.0,0.0
DAPE,0.11727402326231436,0.11727402326043053
SHSL4r,0.0,-2.0722019224281185e-11
PAPPT3,5.9000886187425816e-06,5.900088618740835e-06
ADCL,7.176653247162323e-05,7.176653247089465e-05
NNATr,0.0002894261652350849,0.00028942616006411015
SALCOD,0.0,0.0
12METRAT,0.0,0.0
METSOX2abc,0.0,0.0
AGPAT180,0.0,0.0
23PDE4pp,0.0,0.0
LPLIPAL2G160,0.0,0.0
EX_glyb_LPAREN_e_RPAREN_,0.0,0.0
HACD7i,0.0,0.0
ACS,0.0,-1.0361009612140606e-11
GK2_fw,0.0,0.0719072763933949
CBMK,0.8743073138268045,2.375545228154672
EX_no2_LPAREN_e_RPAREN_,0.0,-2.072201922428126e-11
ICHORS,0.0,0.0
SUCD1,0.0,-1.0361009612140586e-11
3HAD160,0.0,0.0
DHORTS_fw,0.0,-1.0361009612140586e-11
ATPPRT,0.010162956282953358,0.010162956282919147
SPMDabc,0.0,-2.3592870483300703e-16
14MTHEAO,0.0,0.0
METALAtr,0.0,0.0
EX_met_DASH_D_LPAREN_e_RPAREN_,0.0,0.0
EX_5mtr_LPAREN_e_RPAREN_,0.0,0.0
6M3OHAO,0.0,0.0
SPODM,0.0,0.0
5MTH2EO,0.0,0.0
2BDabc,0.0,0.0
ANTGLPT,0.0,0.0
G1PACT,0.5228669261363528,0.5228669261311722
EAR100x,0.0,0.0
TYRTA,-0.014792702185701705,-0.014792702184911398
FTHFCL,0.0,0.0
GLYGLUtr,0.0,0.0
EX_sucr_LPAREN_e_RPAREN_,0.0,-1.883819929480106e-12
RNDR4,0.0,-2.0722019224281192e-11
GCCc_fw,0.0,-1.036100961214059e-11
EX_2bdgsglyc_LPAREN_e_RPAREN_,0.0,0.0
THMabc,4.784435498123646e-05,4.78443549807167e-05
GLYASPtr,0.0,0.0
4HTHRS,0.0,0.0
ALDD31,0.0,0.0
UAMAGS,5.9000886187425816e-06,5.900088618740835e-06
ACALD,0.0,-2.072201922428118e-11
LPLIPAL2E141,0.0,0.0
EX_lcts_LPAREN_e_RPAREN_,0.0,-3.4536698707135207e-12
LEUt2r,0.29763141428505524,0.29763141428492595
PNTK,7.170216780494343e-05,7.170216849770872e-05
HEX1,0.0,-2.0722019224281208e-11
EX_cd2_LPAREN_e_RPAREN_,0.0,0.0
DGNSK,0.0,0.0
DRBK,0.0,-4.144403844856243e-12
OSUCCL,0.0,1000.0
EX_hg2_LPAREN_e_RPAREN_,0.0,0.0
CBPS,0.0,-2.07220192242812e-11
PDHbr,-14.505709659953425,-14.505709659969966
MCOATA,-3.3162805834763245e-13,0.0
PIt2,0.0,933.6858078448547
GTPCI,0.0,7.176653247087572e-05
LPLIPAL2A161,0.0,0.0
5MET3OH,0.0,0.0
HEDMC,0.0,0.0
HACD4,0.0,0.0
IPPMIb_fw,0.0,-1.0637889232539076e-11
PMEVK,0.003348032105290108,0.0033480321052890907
LPADH2,0.0,1000.0
RBKr,0.0,814.2092059904994
URAt2,-1.3817835764484694e-12,0.0
GLNSP1,0.0,-2.0887712303805825e-11
ECOAH7,0.0,0.0
PDHcr,0.0,-2.0887712303805796e-11
MALTpts,0.0,0.0
ADPRDP,0.0,0.0
TGBPA,0.0,0.0
ALAHIStr,-4.876883210994597e-13,0.0
UDPG4E_fw,0.0,-1.0443856151902898e-11
BTGSD,0.0,0.0
AKGDb,0.0,0.0
GLUt4,-1000.0,1000.0
EX_mg2_LPAREN_e_RPAREN_,-0.0009306048866835944,-0.0009306048866834889
EX_mobd_LPAREN_e_RPAREN_,-7.509203696582318e-07,-7.509203696581467e-07
G6PI3,0.0,0.0
DRBabc,0.0,0.0
DHPS4,7.176652453527721e-05,7.176653247088771e-05
GHMT2r,1.263501538643809,1000.0
FF_21,0.0,0.0
PRATPP,0.010162956282953358,0.01016295628291321
HEXAT,0.0,0.0
12MTT2E,0.0,0.0
12MEDAT,0.0,0.0
ORNTAC,-11.303198588293398,-8.388312972127443
6PHBG,0.0,-2.432673914488471e-11
FORMANT,0.0,7.176653256597314e-05
EX_glcn_LPAREN_e_RPAREN_,0.0,0.0
SALHL,0.0,0.0
GMPS2,0.0,-2.432673914488471e-11
URIK1,0.0,0.0654266190406024
OOR3r,0.12182878439903229,0.12182878438953205
TECHUex,0.0,0.0
ISOHGLT,0.0,0.0
GLYMETtr,-5.648814749292789e-13,0.0
ORNDC,0.0,0.001072743382522959
3HAD80,0.0,0.0
ISOHEPT,0.0,0.0
G3PD,0.0,0.0
EX_btn_LPAREN_e_RPAREN_,0.0,-6.757412070949216e-13
IZPN,0.0,0.0
AGPAT141,0.0,0.0
6MTR2EO,0.0,0.0
RNDR2,0.06542661906492908,0.06542661906490635
PC,4.697763323235346,411.8632831887529
14DH2NOT,0.0,0.0
13M3OTDAO,0.0,0.0
ABUTDy,0.0,0.0
ACACT2r,0.0,0.0
AB6PGH2,0.0,0.0
E4PD,0.0,0.0
TRPS2,0.0,0.006097795224604544
TRO2EAO,0.0,0.0
TREpts,-1.5816681298019844e-12,0.0
PRO1x,0.0,-8.108913048294896e-12
M1PD,0.0,0.0
G3PAT181,0.0,0.0
HACD9,0.0,0.0
NOS1,0.0,-1.2164491636212915e-11
ISOHGL3AS,0.0,0.0
ISOHG3PO,0.0,0.0
MG2tex,-814.208275385814,0.0009306048866831647
RNTR3,0.0,0.0010620159269875604
HSERTA,0.016486563990183133,0.01648656396579703
EX_cu2_LPAREN_e_RPAREN_,-7.605750601252286e-05,-7.6057506012518e-05
G6PI,0.0,0.0
EX_h_LPAREN_e_RPAREN_,-922.4462705421789,1000.0
HPYRRy,0.0,1000.0
FACOAL140p,0.0,-1.0292412624669428e-12
SUCpts,-4.8885340220295e-13,0.0
PANTS,7.170216780405525e-05,7.170216849769484e-05
AGDC_r_fw,0.0,-1.2865515780836763e-11
ORPT,0.8425764226865393,0.8425764226822691
GCCb,0.0,-6.432757890418388e-12
3OAR80,0.0,0.0
EX_mnl_LPAREN_e_RPAREN_,0.0,0.0
OPHHXy,0.0,0.0
EX_for_LPAREN_e_RPAREN_,0.0,1.5012379143447883
HACD3,0.0,0.0
ALAGLNtr,-3.4980565452804904e-13,0.0
EX_ppi_LPAREN_e_RPAREN_,3.833466509188299,4.04381528857617
GARFT_fw,0.5083744204602176,0.5083744204482098
PPCOAL,-4.547473508864625e-12,0.0
EX_uri_LPAREN_e_RPAREN_,0.0,-2.8744507036410533e-12
PSP_L,0.0,0.0
AMANAPEr,-2.2737367544323133e-12,0.0
NO3R2_fw,0.0,-2.58700563327696e-11
FMNRx,0.0,0.0
AMPEP1_fw,-5.05274834318293e-13,-1.2935028166384745e-11
AMPEP2_fw,-4.54747350886464e-13,-1.2935028166384745e-11
AMPEP4_fw,0.0,-1.2935028166384745e-11
AMPEP5_fw,-3.7895612573872007e-13,-1.2935028166384745e-11
AMPEP6_fw,0.0,-1.2935028166384745e-11
AMPEP7_fw,-2.6749844169791993e-13,-1.2935028166384745e-11
CHOLD,0.0,0.0
AMPEP8_fw,0.0,-1.2935028166384745e-11
AMPEP9_fw,0.0,-1.2935028166384745e-11
AMPEP10_fw,0.0,-1.2935028166384745e-11
PPCOAC,0.0,0.0
FLDO,0.0,0.0
GLULOD_fw,0.06091439220007747,0.060914392187905175
AMPEP3_fw,-5.296452035886621e-13,-1.2935028166384745e-11
ARSabc,0.0,933.68580784472
ARStr,-933.685807845075,0.0
FF_26,0.0,0.0
ADNt2r,-5.11590769747272e-13,0.0
PIt7_fw,0.0,-4.015987542516095e-11
DADNt2r,-4.514036203652399e-13,0.0
INSt2r,-4.996237341976286e-13,0.0
MALTHXabc,0.0,-4.015987542516093e-11
LYSt2r,0.0,1000.0
FF_31,0.0,0.0
ICHORT,0.0,0.0
SBTpts,0.0,0.0
CYSTGL,0.0,-2.4153568034535052e-11
CPPPGO,0.0010727433852259238,0.001072743384929561
3OXCOAT,0.0,0.0
NH4tex,-993.4937215435149,9.50875428517715
ASPt2r,-6.593836587853743e-13,0.0
MALt2r,-1000.0,1000.0
NAt3,0.0,0.0
HISTD,0.0,0.01016295628291432
BTS4,0.0,0.0
L_LACD,-3.296918293926871e-12,-2.3646862246096118e-11
L_LACD3,-3.2969182939268713e-12,-2.3646862246096128e-11
GLYLEUtr,-3.296918293926871e-12,0.0
GLYCYSabc,-3.296918293926872e-13,0.0
GLYTYRAP_fw,-2.866885472979889e-13,-1.1823431123048057e-11
GLYPHEAP_fw,0.0,-1.1823431123048057e-11
GLYLEUAP_fw,0.0,-1.1823431123048057e-11
GLYCYSAP_fw,0.0,-1.1823431123048057e-11
AMPEP11,0.0,0.0
PROt2r,-1000.0,1000.0
AMPEP12_fw,-2.9733480634884253e-13,-2.0008883439004405e-11
THMDt4,-1000.0,1000.0
CHOLSabc,0.0,0.0
ACOTA_fw,0.0,-2.0008883439004405e-11
CYSTSr_fw,0.0,1.16013526862607
AKGDa,0.0,0.0
D_LACD_fw,0.0,-4.0017766878008836e-11
AMPEP13_fw,-4.3200998334214175e-13,-2.0008883439004405e-11
METSOXR1,0.0,-3.3348139065007347e-12
FE3tex_fw,0.0,-5.335702250401178e-11
YUMPS,0.0,0.0
FORt2,-1.5012379143616092,999.9999999999999
NADDPp,0.0,-1.0004441719502212e-11
AMPEP14_fw,-2.4000554630118986e-13,-2.0008883439004405e-11
THMDt2r,-1000.0,1000.0
DCYTt2r,0.0,0.0
MALt4,-1000.0,1000.0
PTRCabc,-4.800110926023796e-13,0.0
CTBTabc,0.0,0.0
URIt4,0.0,0.0
GAMpts,-1.0800249583553545e-12,0.0
UREAt,-1.5012379143616092,0.0
VALt2r,-4.3200998334214185e-13,0.0
CYTBD2,0.0,-3.819838683956496e-11
ACYP_2,0.0,814.2092059903858
Cut1,7.6057506012518e-05,407.10467905269894
AMPTASECG,-4.3200998334214185e-13,0.0
THIORDXi,0.0,-1.801314524001107e-11
PGLYCP,0.0,0.0
MDH3,0.0,0.12183374044023176
DGSNt2,0.0,0.0
DURIt2r,0.0,0.0
DINSt2e,0.0,0.0
CYSabc,0.0,0.0
G3PD6,0.0,0.12183374044023176
ADK2_fw,0.0,-1.801314524001103e-11
AKGt2r,-1000.0,1000.0
ISOP3PT,0.0,0.0
ACCOAL2r,0.0,-3.602629048002206e-11
URIt2r,0.0,0.0
CYTDt2r,-1000.0000000000005,1000.0
MEPCT,0.0,0.0
ALAt2r,-1000.0000000000008,1000.0
ACODA,8.444830135499558,11.359715751611446
PYNP2r,0.0,0.06542661902890286
CAT,0.0,0.0
PMTSS_fw,0.0,-1.8013111851311636e-11
NADH10,0.0,0.12183374044015412
PPItex,3.8334665091881748,4.043815288592607
GLYTYRabc,-4.0531829100750157e-13,0.0
THZPSN,0.0,0.0
LYSt3r,0.0,1000.0
FF_56,0.0,0.0
LACpts,0.0,0.0
THRD,0.0,0.0
GLYPHEtr,-3.214593342473288e-13,0.0
CHOLOD_fw,0.0,-1.9959619076549967e-11
BETALOD_fw,0.0,-1.9959619076549967e-11
CYTDt4,-1000.0000000000005,1000.0
AKGDH,0.0,-1.811978795833924e-11
GLYBt2r,-933.6858078450382,0.0
PNPA6,0.0,0.0
NTPP2,0.0,-1.8119783124343746e-11
NTPP9,0.0,0.0
UDNDMx,0.0,0.0
RBK_Dr,0.0,0.0
DR1ORy,-979.5988311225436,1000.0
SAS40,0.0,1.3879670872737453
DGLUO_fw,0.0,-1.811969630826048e-11
RMOAx,-0.0033480321052902495,989.7960675291356
PNPA2,-4.222261439199541e-13,0.0
ABTA,0.0,0.0
PLMET_fw,0.0,-1.811969630826048e-11
SAS3148,0.0,0.0
AACLAM_fw,0.0,-1.811969630826048e-11
3MACPD,0.0,0.0
XYLOD_fw,0.0,-1.811969630826048e-11
NTPP11,0.0,0.0
GLXIII_fw,0.0,-1.811969630826048e-11
UDALDL,0.0,0.0
TAHL,0.0,0.0
SAS81,0.0,0.0
RBK_L1,0.0,0.0
ATPX5P,0.0,0.0
NA6PH,0.0,0.0
SAS89,0.0,0.0
ITACL,0.0,0.0
3MTDC_fw,0.0,-1.811969630826048e-11
CO23OC,0.0,0.0
ACOAM,0.0,-3.6239392616520904e-11
NTPP10,0.0,0.0
FDFP,0.0,0.0
PO2OR,-21.962593108869108,-18.960117280253613
DR1ORx,-1000.0,979.5988311224868
PTHPS,0.0,0.0
PNPA1,0.0,0.0
ATPP5P,0.0,0.0
4MCO2D_fw,0.0,-1.5916157281026244e-11
GTHP,0.0,0.0
PNPA7,0.0,-7.95807864051312e-12
NTPP1,0.0,0.06436460309780181
DUTPDP,0.0,-3.1718627724330885e-11
NTPP8,0.0,-3.171862772433087e-11
3A2OA_fw,0.0,-1.585931386216545e-11
GLCOAD,0.0,0.0
GLCAH,0.0,0.0
XPAL,0.07190727639738964,0.07190727637220766
EX_26dap_M_LPAREN_e_RPAREN_,0.0,0.0
EX_acnam_LPAREN_e_RPAREN_,0.0,-2.4398944403331475e-12
EX_adn_LPAREN_e_RPAREN_,0.0,-2.114575181622061e-12
EX_csn_LPAREN_e_RPAREN_,0.0,0.0
EX_etoh_LPAREN_e_RPAREN_,0.0,-7.929656931082726e-12
EX_glc_LPAREN_e_RPAREN_,-8.0,-8.000000000010573
EX_glyald_LPAREN_e_RPAREN_,0.0,-1.0572875908110299e-11
EX_gua_LPAREN_e_RPAREN_,0.0,0.0
EX_hdca_LPAREN_e_RPAREN_,0.0,0.0
EX_nac_LPAREN_e_RPAREN_,-0.00028942616517357855,-0.00028942616553706557
EX_ncam_LPAREN_e_RPAREN_,0.0,0.0
EX_salcn_LPAREN_e_RPAREN_,0.0,0.0
PSQSYN,0.0,0.0
DPHYTOLS,0.0,0.0
GDNSACT,0.0,0.0
DNSPO,0.0,0.0
DNSPGT,0.0,0.0
DNSPADH,0.0,0.0
DCAROTDS,0.0,0.0
DHSQSYN,0.0,0.0
DHSQSAT,0.0,0.0
GLCPcom_SA,0.005685539941697396,0.00568553994169482
PALASA_SA2,0.053637169261296185,0.05363716926127188
PAPA_SA,0.029000544676197622,814.2382065350786
PASYN_SA,0.5225697762186451,0.5225697762184006
PGLYSA_SA2,0.053637169261296185,0.0536371692612711
PLEUSA_SA2,0.053637169261296185,0.0536371692612711
PLYSSA_SA2,0.08045575389194429,0.08045575389190665
PSD_SA,0.04773708064255361,0.04773708064253128
PSSA_SA,0.04773708064255361,0.04773708064253128
SA_free_FA,0.0010727433852259238,0.001072743385225422
TAGO,0.07487748828876949,0.07487748828422201
UDPG12dgrGT_SA2,0.00012945867172906448,0.0001294586717290056
UDPG3g12dgrGT_SA2,0.00012945867172906448,0.0001294586717290056
sink_glyclt_c,7.176653247151221e-05,7.176653264087192e-05
ASNt2r,0.0,0.0
EX_ribflv_LPAREN_e_RPAREN_,0.0,-1.5916157281026266e-12
DROPPRy,2.39221774905381e-05,2.3922175898922373e-05
DRTPPD,2.39221774905381e-05,2.3922175898922373e-05
SUCBZS,0.0,0.0
SALCpts,0.0,0.0
UAG2EMA,0.0,-7.958078640513125e-12
UAG2E,0.034113239650184375,0.03411323965016886
DAPDC,0.11726812317369562,0.11726812317080176
G3PD2,-1000.0,-1.5674754705978557
LDH_D,-7.957803867190794e-12,-3.183231456205248e-11
GLCpts,7.999999999997347,8.0
PGM,-9.834756753761408,-9.754270963064558
MOBDabc,7.509203696581467e-07,7.509203696578052e-07
AMANK,0.0,-7.958078640513125e-12
AMAA,0.0,0.0
ENO,9.754270963041439,9.834756753718246
Kabc,0.0,933.6858078447426
SUCOAS,0.12183374047350742,0.37534617364435297
CRNabc,0.0,0.0
CHLabc,0.0,933.685807844743
GLYBabc,0.0,933.685807844743
PROabc,0.0,814.2092059904065
PIabc,10.99329624365564,944.6791040884278
IGPDH,0.010162956282953358,0.010162956282896303
TMDS,0.08048579070673062,0.08048579070669089
MNabc,0.0,-3.4560798667371286e-11
ZNabc,0.0,-3.4560798667371286e-11
3M2OBLOXRD,-1000.0,0.029080103616593078
3M2OPLOXRD,-1000.0,0.7506135135582781
4M2OPLOXRD,-1000.0,1000.0
ACACT1r,0.003348032105290108,0.0033480321052888466
ACACT3r,0.0,0.0
ACACT5r,0.0,0.0
ACACT7r,0.0,0.0
ACHBS,0.0,13.551335879634511
ACLS,0.0,13.551335879634511
ACNAMt2,-3.1308289294429414e-14,0.0
ACPpds,0.0,-2.6375346351415003e-11
ADCYRS,0.0,0.0
ADKd_fw,0.0,-1.3187673175707468e-11
ADSK,0.026382450079951034,0.026382450080530653
AGMHE,0.0,0.0
AGMT,0.0,0.0010727433852255196
AGPR,-0.056517163428100065,-0.056517163427612226
AIRC2,0.0,814.7175804109763
AIRC3,-814.7175804111305,0.0
AKGMAL,-1000.0,1000.0
ALATRS,0.0,0.0
ALCD1_fw,0.0,-9.663381206337356e-12
ALCD2x_fw,-3.463895836830488e-13,-9.663381206337356e-12
AOXSr,0.0,0.0
ARGDr,-1.532968805500522,-0.031730891146639816
ARGTRS,0.0,0.0
ASNS1,0.025859015672563507,0.025859015666083358
ASNTRS,0.0,0.0
ASPKi,2.970226386725452,2.970226386709938
ASPTRS,0.0,-3.2400748750660585e-12
ATPS4r_fw,0.0,-1.944044925039633e-11
BTS3r_fw,-1.918367904996519e-14,-9.720224625198166e-12
CHLt2r,-933.6858078450518,0.0
CIT_Mgt,0.0,0.0
CLPNS_SA,0.013462929484585344,0.013462929484581608
CYSTRS,0.0,0.0
DAGK_SA,0.0,814.2092059905117
DALAt2r,-7.968400141303469e-13,0.0
DASYN_SA,0.4935692315424475,0.49356923154230314
DHAK,0.0,629.1616591745317
DHQD,0.04083644426841079,0.040836444267436434
DKMPPD2,0.0,0.0
DNMPPA,0.0,7.176653264058624e-05
DNTPPA,0.0,7.176653264058624e-05
ETOHt,-9.960500176629336e-13,0.0
FACOAL160,0.0,0.0
FLVR,0.0,0.0
FLVRx,0.0,0.0
FORt3,0.0,1000.0
FRUK,0.0,-6.850891908937143e-12
G1SATi,0.0,0.008773324494853641
G3PCT,0.8528309912546095,0.8528309912544418
GALUi,0.0,1000.0
GHMT2,0.0,998.736498461331
GLCS1,0.0,0.0
GLGC,0.0,0.0
GLUSx,0.0,5.631134089943529
GLUabc,0.0,933.6858078449483
GLYALDt,-2.2635537544754888e-13,0.0
GLYC3Pabc,0.0,-8.924416761146857e-12
GLYC3Pt6,0.0,933.6858078449366
GLYD,0.0,1000.0
GLYTRS,0.0,-3.5050633790388575e-12
GMHEPAT,0.0,0.0
GMHEPK,0.0,0.0
GMHEPPA,0.0,0.0
GPDDA1,0.0,0.0
GPDDA2,0.0,0.0
GPDDA3,0.0,0.0
GPDDA4,0.0,0.0
GPDDA5,0.0,0.0
H2Ot,-25.90786015687201,-22.695035548749978
HCO3E,11.545987470200364,825.755193460723
HEMEAS,0.0,0.0
HISDr_fw,0.0,-1.0430804492814454e-11
HMGCOASi,0.003348032105290108,0.0033480321052891102
ICDHyr,-1000.0,-6.0254023992456496e-12
ILETRS,0.0,0.0
KARA1i,0.07454622942235921,0.07454622942068481
KARA2i,0.7817798198541226,0.7817798198483388
KAS1,0.006793407090842385,0.006793407090840466
KAS10,0.0,0.0
KAS11,0.08664559049903638,0.0866455904990119
KAS12,0.20231607694911502,0.20231607694905784
KAS13,0.06061809404136283,0.060618094041345695
KAS15,0.0,0.0
KAS16,-3.240074875066057e-14,0.0
KAS17,0.0,0.0
KAS19SA,0.09719797837666798,0.09719797837664051
KAS2,0.0020902791048745804,0.0020902791048739897
KAS20SA,0.03292189590177464,0.032921895901765336
KAS3,0.10901823951581137,0.10901823951578056
KAS4,0.45109945823250647,0.451099458232379
KAS5,0.0,0.0
KAS6,0.022286696525777132,0.022286696525770835
KAS7,0.0,0.0
KAS8,0.02337638282002931,0.023376382820022704
KAS9,0.0,0.0
Kt2r,-933.6648686450923,1000.0
LYSTRS,0.0,0.0
LYSabc,0.0,629.1616591744925
MACPD,0.0,0.0
MDRPD,0.0,0.0
ME1_rev,0.711337039842435,0.8331707803188436
METS,0.0,1000.0
METTRS,0.0,0.0
MEVK2,0.0,-8.206305529001417e-12
MEVK3,0.0,-8.206305529001417e-12
MEVK4,0.0,-8.206305529001417e-12
MG2abc,0.0,814.2092059905276
MHPGLUT,0.0,-6.025383009790163e-12
MTRK,0.0,0.0
NACUP,0.00028942616529548104,0.0002894261649304397
NADH7,0.0,-1.8076149029370754e-11
NALN6,0.0,0.0
NAt3_1,-1000.0,1000.0
NAt3_15,0.0,1000.0
NAt3_2,0.0,1000.0
NBAH,0.0,0.0
NH4OHDs,0.0,-3.347292891712805e-11
NH4t4,0.0,1000.0
NIabc,3.464961134279734e-05,3.4649611342781424e-05
NO3t7,0.0,1000.0
NOPD,0.0,0.0
NPHSr,-1000.0,0.0
NTRIRx,0.0,4.092726157978177e-12
NTRIRy,0.0,4.092726157978177e-12
OCTD,0.0,0.0
OIVD1r,-999.8043361699852,15.481067107135573
OIVD2,0.0,1000.0
OIVD3,0.0,1000.0
ORNTA,0.0,-4.433786671143034e-12
PAPSR,0.026382450079951034,0.02638245008005581
PDH,0.0,-8.86757334228602e-12
PFLr,2.3874095483601536,3.888647462713177
PGMT,-0.38926424671018905,-0.3892642467101268
PGPP_SA,0.15082771996276487,0.15082771996274602
PGSA_SA,0.20446488922406109,0.2044648892240355
PMDPHT,2.39221774905381e-05,2.3922177052843777e-05
POX2,9.05877042871575,10.560008343061984
PPA,0.0,-8.86757334228579e-12
PRASCS,0.0,0.508374420459988
PROt4,0.0,1000.0
PTPATi,7.170216786889227e-05,7.170216015683906e-05
PTRCORNt7,0.0,-8.715990891990619e-13
PYRZAM,0.0,0.0
RBK,0.0,629.161659174587
S3AdT,0.0,0.0
S7PIr,0.0,0.0
SADT2,0.026382450079951034,0.026382450080073123
SDPDS,0.0,0.25351243318436045
SERAT_fw,0.026382450079950992,1.1865177187258586
SERD_Lr,0.0,1.1601352686457753
SERTRS,0.0,3.907985046680593e-14
SHCHCS2,0.0,0.0
SHSL1,0.0,1000.0
SQLS,0.0,0.0
SSALy,0.0,0.0
SUCR,0.0,0.0
Spt3AdT,0.0,0.0
TECA1S,0.011371079883394792,0.011371079883393897
TECA2S,0.011371079883394792,0.011371079883393897
TECA3S,0.011371079883394792,0.011371079883393897
THDPS,0.0,0.253512433183273
THRTRS,0.0,-9.18076221106443e-13
THRt2,-9.947598300641417e-13,0.0
TYRt2r,-4.736951571734013e-13,0.0
UDCPKr,0.0,0.0
UDPDPS,0.0,0.0
UPPRTr,-0.08048579070755958,0.06542661905942403
XANt,-1000.0,1000.0
becker_WT,0.0,-6.267732352574168e-15
Sa_biomass_WT,0.10727433852259238,0.10727433852258395
Zn2tex,3.6580547844588276e-05,3.6580549436201125e-05
EX_ac_LPAREN_e_RPAREN_,0.0,0.0
ATPS24,66.31419215497195,1000.0
HSTPTr,-0.010162956282956314,-0.010162956282953358
EX_4abz_LPAREN_e_RPAREN_,0.0,0.0
G6PP,0.007171289530235302,0.0071712895223016585
GLCRAL,0.0,0.0
GLCRD,0.0,0.0
GLCRt2rpp,0.0,0.0
GLCRtex,0.0,0.0
TRSARr,0.0,0.0
NO3R2pp,0.0,-6.102802728039617e-13
GALKr_fw,0.0,-3.966821773225758e-12
GALabcpp,0.0,0.0
GALtex,0.0,0.0
UGLT,0.0,0.0
CITL,0.0,-7.933643546451515e-12
DDGLK,0.0,0.0
EDA,0.0,0.0
GLCURt2rpp,0.0,0.0
GLCURtex,0.0,0.0
GUI1,0.0,0.0
MNNH,0.0,0.0
MANAO,0.0,-1.7630318992114403e-12
G6Pt6_2pp,0.0,0.0
G6Ptex,0.0,0.0
PIt2rpp,0.0,0.0
THYMt3pp,0.0,-1.2205605456079235e-12
TMDPP,0.0,-1.2205605456079235e-12
THYMtex,0.0,0.0
F6Pt6_2pp,0.0,0.0
F6Ptex,0.0,0.0
MLTG1,0.0,0.0
ADA,0.0,-1.5867287092903049e-12
ACMANAptspp,0.0,0.0
ACMANAtex,0.0,0.0
3GMPtex,0.0,0.0
3NTD9pp,0.0,0.0
GSNt2pp,0.0,0.0
H2Otex,0.0,0.0
GAM6Pt6_2pp,0.0,0.0
GAMAN6Ptex,0.0,0.0
MAN6Pt6_2pp,0.0,0.0
MAN6Ptex,0.0,0.0
EX_thym_LPAREN_e_RPAREN_,0.0,-1.2205605456079235e-12
EX_glcr_LPAREN_e_RPAREN_,0.0,0.0
EX_succ_LPAREN_e_RPAREN_,0.0,0.0
EX_gal_LPAREN_e_RPAREN_,0.0,0.0
EX_fuc_DASH_L_LPAREN_e_RPAREN_,0.0,0.0
EX_glcur_LPAREN_e_RPAREN_,0.0,0.0
EX_xyl_DASH_D_LPAREN_e_RPAREN_,0.0,0.0
EX_galctn_DASH_D_LPAREN_e_RPAREN_,0.0,0.0
EX_mal_DASH_D_LPAREN_e_RPAREN_,0.0,0.0
EX_rmn_LPAREN_e_RPAREN_,0.0,0.0
EX_melib_LPAREN_e_RPAREN_,0.0,0.0
EX_12ppd_DASH_R_LPAREN_e_RPAREN_,0.0,0.0
EX_12ppd_DASH_S_LPAREN_e_RPAREN_,0.0,0.0
EX_tartr_DASH_L_LPAREN_e_RPAREN_,0.0,0.0
EX_tartr_DASH_D_LPAREN_e_RPAREN_,0.0,0.0
EX_g1p_LPAREN_e_RPAREN_,0.0,0.0
EX_f6p_LPAREN_e_RPAREN_,0.0,-5.289095697634332e-13
EX_dad_DASH_2_LPAREN_e_RPAREN_,0.0,-4.666849144971473e-13
EX_inost_LPAREN_e_RPAREN_,0.0,0.0
EX_fum_LPAREN_e_RPAREN_,0.0,0.0
EX_ppa_LPAREN_e_RPAREN_,0.0,0.0
EX_galct_DASH_D_LPAREN_e_RPAREN_,0.0,0.0
EX_glyclt_LPAREN_e_RPAREN_,0.0,0.0
EX_ins_LPAREN_e_RPAREN_,0.0,-5.289095697634332e-13
EX_acac_LPAREN_e_RPAREN_,0.0,0.0
EX_4hoxpacd_LPAREN_e_RPAREN_,0.0,0.0
EX_tym_LPAREN_e_RPAREN_,0.0,0.0
EX_lyx_DASH_L_LPAREN_e_RPAREN_,0.0,0.0
EX_pyr_LPAREN_e_RPAREN_,0.0,0.0
EX_galur_LPAREN_e_RPAREN_,0.0,0.0
EX_peamn_LPAREN_e_RPAREN_,0.0,0.0
EX_etha_LPAREN_e_RPAREN_,0.0,0.0
EX_acgal_LPAREN_e_RPAREN_,0.0,0.0
EX_all_DASH_D_LPAREN_e_RPAREN_,0.0,0.0
EX_arbt_LPAREN_e_RPAREN_,0.0,0.0
EX_4abut_LPAREN_e_RPAREN_,0.0,0.0
EX_but_LPAREN_e_RPAREN_,0.0,0.0
EX_dca_LPAREN_e_RPAREN_,0.0,0.0
EX_hxa_LPAREN_e_RPAREN_,0.0,0.0
EX_5dglcn_LPAREN_e_RPAREN_,0.0,0.0
EX_quin_LPAREN_e_RPAREN_,0.0,0.0
EX_hom_DASH_L_LPAREN_e_RPAREN_,0.0,0.0
EX_dha_LPAREN_e_RPAREN_,0.0,0.0
EX_agm_LPAREN_e_RPAREN_,0.0,0.0
EX_ade_LPAREN_e_RPAREN_,0.0,0.0
EX_gsn_LPAREN_e_RPAREN_,0.0,0.0
EX_xtsn_LPAREN_e_RPAREN_,0.0,0.0
EX_alltn_LPAREN_e_RPAREN_,0.0,0.0
EX_tsul_LPAREN_e_RPAREN_,0.0,0.0
EX_cys_DASH_D_LPAREN_e_RPAREN_,0.0,0.0
EX_taur_LPAREN_e_RPAREN_,0.0,0.0
EX_butso3_LPAREN_e_RPAREN_,0.0,0.0
EX_isetac_LPAREN_e_RPAREN_,0.0,0.0
EX_mso3_LPAREN_e_RPAREN_,0.0,0.0
EX_3amp_LPAREN_e_RPAREN_,0.0,0.0
EX_amp_LPAREN_e_RPAREN_,0.0,0.0
EX_3gmp_LPAREN_e_RPAREN_,0.0,0.0
EX_gam6p_LPAREN_e_RPAREN_,0.0,0.0
EX_23ccmp_LPAREN_e_RPAREN_,0.0,0.0
EX_Cit_Mg_LPAREN_e_RPAREN_,0.0,0.0
EX_ala_DASH_L_asp_DASH_L_LPAREN_e_RPAREN_,0.0,0.0
EX_ala_DASH_L_glu_DASH_L_LPAREN_e_RPAREN_,0.0,0.0
EX_ala_DASH_L_thr_DASH_L_LPAREN_e_RPAREN_,0.0,0.0
EX_ala_D_LPAREN_e_RPAREN_,0.0,-2.7284841053187847e-12
EX_ala_L_LPAREN_e_RPAREN_,0.0,-2.2737367544323206e-12
EX_ala_gln_LPAREN_e_RPAREN_,0.0,-1.0494169635841479e-12
EX_ala_his_LPAREN_e_RPAREN_,0.0,-8.024953250937602e-13
EX_ala_leu_LPAREN_e_RPAREN_,0.0,0.0
EX_arg_L_LPAREN_e_RPAREN_,0.0,0.0
EX_asn_L_LPAREN_e_RPAREN_,0.0,0.0
EX_asp_L_LPAREN_e_RPAREN_,0.0,-2.7284841053187855e-12
EX_crn_DASH_D_LPAREN_e_RPAREN_,0.0,0.0
EX_cys_L_LPAREN_e_RPAREN_,0.0,-1.5158245029548805e-12
EX_glu_L_LPAREN_e_RPAREN_,0.0,-1.8189894035458565e-12
EX_gly_DASH_pro_DASH_L_LPAREN_e_RPAREN_,0.0,-1.1627062948801639e-12
EX_gly_asn_DASH_L_LPAREN_e_RPAREN_,0.0,-1.1627062948801639e-12
EX_gly_asp_DASH_L_LPAREN_e_RPAREN_,0.0,0.0
EX_gly_cys_LPAREN_e_RPAREN_,0.0,0.0
EX_gly_gln_LPAREN_e_RPAREN_,0.0,0.0
EX_gly_glu_DASH_L_LPAREN_e_RPAREN_,0.0,0.0
EX_gly_leu_LPAREN_e_RPAREN_,0.0,0.0
EX_gly_met_LPAREN_e_RPAREN_,0.0,-9.135549459772716e-13
EX_gly_phe_LPAREN_e_RPAREN_,0.0,-8.820530512884004e-13
EX_gly_tyr_LPAREN_e_RPAREN_,0.0,0.0
EX_his_L_LPAREN_e_RPAREN_,0.0,0.0
EX_ile_L_LPAREN_e_RPAREN_,0.0,-1.0658141036401503e-12
EX_lac_D_LPAREN_e_RPAREN_,0.0,0.0
EX_lac_L_LPAREN_e_RPAREN_,0.0,-4.263256414560601e-12
EX_lys_L_LPAREN_e_RPAREN_,0.0,-1.1627062948801639e-12
EX_mal_L_LPAREN_e_RPAREN_,0.0,-4.263256414560602e-12
EX_met_DASH_L_ala_DASH_L_LPAREN_e_RPAREN_,0.0,-7.105427357601002e-13
EX_met_L_LPAREN_e_RPAREN_,0.0,0.0
EX_nmn_LPAREN_e_RPAREN,0.0,0.0
EX_phe_L_LPAREN_e_RPAREN_,0.0,0.0
EX_pro_L_LPAREN_e_RPAREN_,0.0,-1.2789769243681803e-12
EX_rib_D_LPAREN_e_RPAREN_,0.0,-4.263256414560603e-12
EX_ser_L_LPAREN_e_RPAREN_,0.0,-6.394884621840903e-12
EX_thr_L_LPAREN_e_RPAREN_,0.0,-2.557953848736361e-12
EX_trp_L_LPAREN_e_RPAREN_,0.0,0.0
EX_tyr_L_LPAREN_e_RPAREN_,0.0,-1.2180732613030288e-12
EX_val_L_LPAREN_e_RPAREN_,0.0,-1.2789769243681805e-12
O2t5i,-5.277112913570184,-4.526493956410385
EX_Fe_LPAREN_e_RPAREN_,50.00000000000013,50.0
NDPK8_rv,1.7205846280288237e-13,0.0
PMTSS_rv,8.602923140144119e-14,0.0
GALKr_rv,8.602923140144119e-14,0.0
UDPG4E_rv,8.602923140144119e-14,-4.405364961712623e-12
GCCc_rv,8.602923140144119e-14,0.0
ASPK_rv,1.7205846280288237e-13,0.0
METB1r_rv,8.602923140144119e-14,0.0
GK2_rv,8.602923140144119e-14,0.0
ALCD1_rv,8.602923140144119e-14,0.0
ADK1_rv,8.602923140144119e-14,0.0
ACCO2L_rv,8.602923140144119e-14,0.0
BTS3r_rv,8.602923140144119e-14,0.0
3A2OA_rv,8.602923140144119e-14,0.0
ADK2_rv,8.602923140144119e-14,0.0
NDPK2_rv,8.602923140144119e-14,0.0
DGLUO_rv,8.602923140144119e-14,0.0
CHOLOD_rv,8.602923140144119e-14,0.0
DTMPK_rv,8.602923140144119e-14,0.0
GLYALDDr_rv,8.60292314014412e-14,0.0
CDDTPP_rv,1.7205846280288237e-13,0.0
ALCD2x_rv,8.602923140144119e-14,0.0
DGK1_rv,-0.0643646031134694,0.0
XYLOD_rv,8.602923140144119e-14,0.0
NDPK4_rv,8.602923140144119e-14,0.0
NDPK7_rv,8.602923140144119e-14,0.0
DADK_rv,-0.08148065292210313,0.0
GAPD_rv,8.602923140144119e-14,0.0
ATPS4r_rv,1.7205846280288237e-13,0.0
GARFT_rv,8.602923140144119e-14,0.0
GLUSy_rv,-5.631134089949201,0.0
FF_16_rv,8.602923140144119e-14,0.0
CYSTSr_rv,8.602923140144119e-14,0.0
GLULOD_rv,8.602923140144119e-14,0.0
ACONTb_rv,8.602923140144119e-14,0.0
NADKd_rv,1.7205846280288237e-13,0.0
ACSERHS_rv,8.602923140144119e-14,0.0
NDPK6_rv,8.602923140144119e-14,0.0
NDPK3_rv,8.602923140144119e-14,0.0
AACLAM_rv,1.7205846280288184e-13,0.0
GLXIII_rv,8.602923140144119e-14,0.0
GK1_rv,8.602923140144119e-14,0.0
ACONTa_rv,8.602923140144119e-14,0.0
LDH_L_rv,1.7205846280288202e-13,0.0
IMACTD_rv,8.602923140144119e-14,0.0
NDPK5_rv,8.602923140144119e-14,0.0
D_LACD_rv,1.7205846280288267e-13,0.0
BETALOD_rv,8.602923140144119e-14,0.0
HISDr_rv,8.602923140144119e-14,0.0
NDPK1_rv,8.602923140144119e-14,0.0
UAG4E_rv,8.602923140144119e-14,0.0
ADKd_rv,-0.08148065292210314,0.0
NOS3_rv,8.602923140144119e-14,0.0
KARA3_rv,1.720584628028824e-13,0.0
3H3MOPI_rv,8.60292314014412e-14,0.0
DPR_rv,-7.17021677835339e-05,-7.170216814600394e-05
NO3R2_rv,2.2737367544323206e-13,0.0
FF_8_rv,2.27373675443232e-13,0.0
APAT_rv,1.1368683772161605e-13,0.0
G1SAT_rv,-0.008773324501618013,0.0
AMAOTr_rv,1.1368683772161605e-13,0.0
IPPMIb_rv,1.1368683772161605e-13,0.0
IPPMIa_rv,1.1368683772161605e-13,0.0
RPE_rv,4.54747350886465e-13,0.0
ALCD19_rv,1.1368683772161605e-13,0.0
SERAT_rv,1.1368683772161605e-13,0.0
DHORTS_rv,-0.8425764226864441,-0.8425764226865665
AGDC_r_rv,1.1368683772161605e-13,0.0
AMPEP14_rv,1.1368683772161605e-13,0.0
AMPEP3_rv,1.1368683772161605e-13,0.0
AMPEP7_rv,1.1368683772161605e-13,0.0
AMPEP8_rv,1.1368683772161605e-13,0.0
AMPEP5_rv,1.1368683772161605e-13,0.0
GLYCYSAP_rv,1.1368683772161605e-13,0.0
AMPEP2_rv,1.1368683772161605e-13,0.0
GLYPHEAP_rv,1.1368683772161605e-13,0.0
AMPEP9_rv,1.1368683772161605e-13,0.0
AMPEP1_rv,1.1368683772161605e-13,0.0
AMPEP12_rv,1.1368683772161605e-13,0.0
AMPEP6_rv,1.1368683772161605e-13,0.0
AMPEP4_rv,1.1368683772161605e-13,0.0
GLYLEUAP_rv,1.1368683772161605e-13,0.0
GLYTYRAP_rv,1.1368683772161605e-13,0.0
AMPEP10_rv,1.1368683772161605e-13,0.0
AMPEP13_rv,1.1368683772161605e-13,0.0
PIt7_rv,2.273736754432324e-13,0.0
ACOTA_rv,-0.05651716342749858,-0.056517163427635866
FE3tex_rv,1.8189894035458568e-13,0.0
PLMET_rv,1.1368683772161605e-13,0.0
4MCO2D_rv,1.1368683772161605e-13,0.0
3MTDC_rv,1.1368683772161605e-13,0.0
FERO_rv,1.1368683772161605e-13,0.0
